{
    "versionHistory":{
        "activity_id":{
            "MD5":"1978084b171c7822174b979b042a05326a25ad1d",
            "URL":"https://github.com/WCRP-CMIP/CMIP6_CVs/commit/1978084b171c7822174b979b042a05326a25ad1d",
            "commitMessage":"Update activity_id to include CDRMIP and PAMIP",
            "timeStamp":"Mon Mar  5 16:39:09 2018 -0800"
        },
        "experiment_id":{
            "MD5":"3fe5a7e463e3fad12d82c4dcfaa500241a89ef6a",
            "URL":"https://github.com/WCRP-CMIP/CMIP6_CVs/commit/3fe5a7e463e3fad12d82c4dcfaa500241a89ef6a",
            "commitMessage":"Add experiment_id values for CDRMIP and PAMIP",
            "timeStamp":"Fri Apr 20 20:46:44 2018 -0700"
        },
        "frequency":{
            "MD5":"62129c480e970cf22a5ca31b169bca2e21cb2b9d",
            "URL":"https://github.com/WCRP-CMIP/CMIP6_CVs/commit/62129c480e970cf22a5ca31b169bca2e21cb2b9d",
            "commitMessage":"Issue414 durack1 revise frequency 1hrCM definition (#418)",
            "timeStamp":"Fri Oct 27 14:03:00 2017 -0700"
        },
        "grid_label":{
            "MD5":"d5ab3b13221bad7abe52def13689062886366b9b",
            "URL":"https://github.com/WCRP-CMIP/CMIP6_CVs/commit/d5ab3b13221bad7abe52def13689062886366b9b",
            "commitMessage":"Issue395 durack1 augment grid_label with description (#401)",
            "timeStamp":"Fri Sep 8 18:12:00 2017 -0700"
        },
        "institution_id":{
            "MD5":"061d5e9c3fed8ea5bcb9f531f6aaf76433a1b60f",
            "URL":"https://github.com/WCRP-CMIP/CMIP6_CVs/commit/061d5e9c3fed8ea5bcb9f531f6aaf76433a1b60f",
            "commitMessage":"Register institution_id ECMWF",
            "timeStamp":"Wed Jun 27 22:43:06 2018 00800"
        },
        "license":{
            "MD5":"7917f3bc2fc4739808f5fa05870ab35411bd4f44",
            "URL":"https://github.com/WCRP-CMIP/CMIP6_CVs/commit/7917f3bc2fc4739808f5fa05870ab35411bd4f44",
            "commitMessage":"Issue225 durack1 add institution_id THU (#232)",
            "timeStamp":"Mon Feb 27 10:30:00 2017 -0700"
        },
        "mip_era":{
            "MD5":"f9e6b0a8ea1dbd85a61a5a1420c1972a6d12b",
            "URL":"https://github.com/WCRP-CMIP/CMIP6_CVs/commit/317f9e6b0a8ea1dbd85a61a5a1420c1972a6d12b",
            "commitMessage":"Fix #36 - Add CV name to json structure",
            "timeStamp":"Thu Aug 25 17:21:00 2016 -0700"
        },
        "nominal_resolution":{
            "MD5":"c45c83d65814fa3caaa965554f0d7eb74b80a186",
            "URL":"https://github.com/WCRP-CMIP/CMIP6_CVs/commit/c45c83d65814fa3caaa965554f0d7eb74b80a186",
            "commitMessage":"Issue141 durack1 update grid_resolution to nominal_resolution (#143)",
            "timeStamp":"Tues Nov 15 16:04:00 2016 -0700"
        },
        "realm":{
            "MD5":"7de3c77a3cf91dd6c34509024d5493e40b1c8d9d",
            "URL":"https://github.com/WCRP-CMIP/CMIP6_CVs/commit/7de3c77a3cf91dd6c34509024d5493e40b1c8d9d",
            "commitMessage":"Issue285 durack1 update realm format (#290)",
            "timeStamp":"Tues Apr 18 12:03:00 2017 -0700"
        },
        "required_global_attributes":{
            "MD5":"534fa1b7ac02a92c6b7e2e770f4e34d73ae94d4c",
            "URL":"https://github.com/WCRP-CMIP/CMIP6_CVs/commit/534fa1b7ac02a92c6b7e2e770f4e34d73ae94d4c",
            "commitMessage":"deleted trailing comma from list",
            "timeStamp":"Thu Mar 16 12:59:00 2017 -0700"
        },
        "source_id":{
            "MD5":"b6f24cd703c259f89e7a42f3c83a7175d6522f1a",
            "URL":"https://github.com/WCRP-CMIP/CMIP6_CVs/commit/b6f24cd703c259f89e7a42f3c83a7175d6522f1a",
            "commitMessage":"Revise source_id MPI-ESM1-2-HR",
            "timeStamp":"Wed Jun 27 23:19:43 2018 00800"
        },
        "source_type":{
            "MD5":"fa3f07e9c215b35e0a54737acba2c2a9f6b8901f",
            "URL":"https://github.com/WCRP-CMIP/CMIP6_CVs/commit/fa3f07e9c215b35e0a54737acba2c2a9f6b8901f",
            "commitMessage":"Issue396 durack1 augment source_type with description (#399)",
            "timeStamp":"Fri Sep 8 17:57:00 2017 -0700"
        },
        "sub_experiment_id":{
            "MD5":"af9202b7e26d357aa988c1741b7a25f90fdedbfd",
            "URL":"https://github.com/WCRP-CMIP/CMIP6_CVs/commit/af9202b7e26d357aa988c1741b7a25f90fdedbfd",
            "commitMessage":"Issue1 durack1 update experiment_id from spreadsheet (MIP-chair review) (#241)",
            "timeStamp":"Wed Mar 8 11:27:00 2017 -0700"
        },
        "table_id":{
            "MD5":"f4a9fc202b7bea32038d92791cbce95af75022ab",
            "URL":"https://github.com/WCRP-CMIP/CMIP6_CVs/commit/f4a9fc202b7bea32038d92791cbce95af75022ab",
            "commitMessage":"Issue199 durack1 update table_id to Data Request v1.0 (#200)",
            "timeStamp":"Fri Jan 13 09:27:00 2017 -0700"
        },
        "versions":{
            "versionCVCommit":31,
            "versionCVContent":8,
            "versionCVStructure":2,
            "versionMIPEra":6
        }
    }
}