data/uas_Amon_CNRM-ESM2-1_piClim-2xDMS_r1i1p1f2_gr_185001-187912.nc
data/uas_Amon_CNRM-ESM2-1_piClim-2xdust_r1i1p1f2_gr_185001-187912.nc
data/uas_Amon_CNRM-ESM2-1_piClim-2xfire_r1i1p1f2_gr_185001-187912.nc
data/uas_Amon_CNRM-ESM2-1_piClim-2xss_r1i1p1f2_gr_185001-187912.nc
data/uas_Amon_CNRM-ESM2-1_piClim-BC_r1i1p1f2_gr_185001-187912.nc
data/uas_Amon_CNRM-ESM2-1_piClim-CH4_r1i1p1f2_gr_185001-187912.nc
data/uas_Amon_CNRM-ESM2-1_piClim-HC_r1i1p1f2_gr_185001-187912.nc
data/uas_Amon_CNRM-ESM2-1_piClim-N2O_r1i1p1f2_gr_185001-187912.nc
data/uas_Amon_CNRM-ESM2-1_piClim-NTCF_r1i1p1f2_gr_185001-187912.nc
data/uas_Amon_CNRM-ESM2-1_piClim-OC_r1i1p1f2_gr_185001-187912.nc
data/uas_Amon_CNRM-ESM2-1_piClim-SO2_r1i1p1f2_gr_185001-187912.nc
