{
    "sub_experiment_id":{
        "none":"none",
        "s1910":"initialized near end of year 1910",
        "s1950":"initialized near end of year 1950",
        "s1960":"initialized near end of year 1960",
        "s1961":"initialized near end of year 1961",
        "s1962":"initialized near end of year 1962",
        "s1963":"initialized near end of year 1963",
        "s1964":"initialized near end of year 1964",
        "s1965":"initialized near end of year 1965",
        "s1966":"initialized near end of year 1966",
        "s1967":"initialized near end of year 1967",
        "s1968":"initialized near end of year 1968",
        "s1969":"initialized near end of year 1969",
        "s1970":"initialized near end of year 1970",
        "s1971":"initialized near end of year 1971",
        "s1972":"initialized near end of year 1972",
        "s1973":"initialized near end of year 1973",
        "s1974":"initialized near end of year 1974",
        "s1975":"initialized near end of year 1975",
        "s1976":"initialized near end of year 1976",
        "s1977":"initialized near end of year 1977",
        "s1978":"initialized near end of year 1978",
        "s1979":"initialized near end of year 1979",
        "s1980":"initialized near end of year 1980",
        "s1981":"initialized near end of year 1981",
        "s1982":"initialized near end of year 1982",
        "s1983":"initialized near end of year 1983",
        "s1984":"initialized near end of year 1984",
        "s1985":"initialized near end of year 1985",
        "s1986":"initialized near end of year 1986",
        "s1987":"initialized near end of year 1987",
        "s1988":"initialized near end of year 1988",
        "s1989":"initialized near end of year 1989",
        "s1990":"initialized near end of year 1990",
        "s1991":"initialized near end of year 1991",
        "s1992":"initialized near end of year 1992",
        "s1993":"initialized near end of year 1993",
        "s1994":"initialized near end of year 1994",
        "s1995":"initialized near end of year 1995",
        "s1996":"initialized near end of year 1996",
        "s1997":"initialized near end of year 1997",
        "s1998":"initialized near end of year 1998",
        "s1999":"initialized near end of year 1999",
        "s2000":"initialized near end of year 2000",
        "s2001":"initialized near end of year 2001",
        "s2002":"initialized near end of year 2002",
        "s2003":"initialized near end of year 2003",
        "s2004":"initialized near end of year 2004",
        "s2005":"initialized near end of year 2005",
        "s2006":"initialized near end of year 2006",
        "s2007":"initialized near end of year 2007",
        "s2008":"initialized near end of year 2008",
        "s2009":"initialized near end of year 2009",
        "s2010":"initialized near end of year 2010",
        "s2011":"initialized near end of year 2011",
        "s2012":"initialized near end of year 2012",
        "s2013":"initialized near end of year 2013",
        "s2014":"initialized near end of year 2014",
        "s2015":"initialized near end of year 2015",
        "s2016":"initialized near end of year 2016",
        "s2017":"initialized near end of year 2017",
        "s2018":"initialized near end of year 2018",
        "s2019":"initialized near end of year 2019",
        "s2020":"initialized near end of year 2020",
        "s2021":"initialized near end of year 2021",
        "s2022":"initialized near end of year 2022",
        "s2023":"initialized near end of year 2023",
        "s2024":"initialized near end of year 2024",
        "s2025":"initialized near end of year 2025",
        "s2026":"initialized near end of year 2026",
        "s2027":"initialized near end of year 2027",
        "s2028":"initialized near end of year 2028",
        "s2029":"initialized near end of year 2029"
    },
    "version_metadata":{
        "CV_collection_modified":"Wed Jun 27 23:19:43 2018 00800",
        "CV_collection_version":"6.2.8.31",
        "author":"Paul J. Durack <durack1@llnl.gov>",
        "institution_id":"PCMDI",
        "previous_commit":"b6f24cd703c259f89e7a42f3c83a7175d6522f1a",
        "specs_doc":"v6.2.6 (20th December 2017; https://goo.gl/v1drZl)",
        "sub_experiment_id_CV_modified":"Wed Mar 8 11:27:00 2017 -0700",
        "sub_experiment_id_CV_note":"Issue1 durack1 update experiment_id from spreadsheet (MIP-chair review) (#241)"
    }
}