{
    "mip_era":[
        "CMIP1",
        "CMIP2",
        "CMIP3",
        "CMIP5",
        "CMIP6"
    ],
    "version_metadata":{
        "CV_collection_modified":"Wed Jun 27 23:19:43 2018 00800",
        "CV_collection_version":"6.2.8.31",
        "author":"Paul J. Durack <durack1@llnl.gov>",
        "institution_id":"PCMDI",
        "mip_era_CV_modified":"Thu Aug 25 17:21:00 2016 -0700",
        "mip_era_CV_note":"Fix #36 - Add CV name to json structure",
        "previous_commit":"b6f24cd703c259f89e7a42f3c83a7175d6522f1a",
        "specs_doc":"v6.2.6 (20th December 2017; https://goo.gl/v1drZl)"
    }
}